<?xml version="1.0" encoding="UTF-8" standalone="no"?>
<!-- Created with Inkscape (http://www.inkscape.org/) -->
<svg
   xmlns:dc="http://purl.org/dc/elements/1.1/"
   xmlns:cc="http://creativecommons.org/ns#"
   xmlns:rdf="http://www.w3.org/1999/02/22-rdf-syntax-ns#"
   xmlns:svg="http://www.w3.org/2000/svg"
   xmlns="http://www.w3.org/2000/svg"
   xmlns:xlink="http://www.w3.org/1999/xlink"
   xmlns:sodipodi="http://sodipodi.sourceforge.net/DTD/sodipodi-0.dtd"
   xmlns:inkscape="http://www.inkscape.org/namespaces/inkscape"
   width="132.26434"
   height="96.845673"
   id="svg2561"
   sodipodi:version="0.32"
   inkscape:version="0.46"
   sodipodi:docname="gumby-v1.svg"
   inkscape:output_extension="org.inkscape.output.svg.inkscape"
   version="1.0">
  <defs
     id="defs2563">
    <linearGradient
       id="linearGradient2201-2">
      <stop
         id="stop2203-4"
         offset="0"
         style="stop-color:#000000;stop-opacity:1;" />
      <stop
         id="stop2205-8"
         offset="1"
         style="stop-color:#313131;stop-opacity:1;" />
    </linearGradient>
    <linearGradient
       inkscape:collect="always"
       xlink:href="#linearGradient2201-2"
       id="linearGradient3950-0"
       gradientUnits="userSpaceOnUse"
       gradientTransform="matrix(1.309492e-2,1.2333596,-1.214356,6.31673e-3,365.94236,647.18121)"
       x1="-38.201668"
       y1="13.049702"
       x2="-79.709045"
       y2="18.544086" />
    <linearGradient
       inkscape:collect="always"
       id="linearGradient5714-9">
      <stop
         style="stop-color:white;stop-opacity:1;"
         offset="0"
         id="stop5716-3" />
      <stop
         style="stop-color:white;stop-opacity:0.40772533"
         offset="1"
         id="stop5718-8" />
    </linearGradient>
    <linearGradient
       inkscape:collect="always"
       xlink:href="#linearGradient5714-9"
       id="linearGradient3947-7"
       gradientUnits="userSpaceOnUse"
       gradientTransform="matrix(-3.306383e-2,-2.0204936,-2.0010483,-1.23502e-3,222.26917,0.884068)"
       x1="41.028126"
       y1="20.863903"
       x2="13.924223"
       y2="11.38804" />
    <inkscape:perspective
       sodipodi:type="inkscape:persp3d"
       inkscape:vp_x="0 : 526.18109 : 1"
       inkscape:vp_y="0 : 1000 : 0"
       inkscape:vp_z="744.09448 : 526.18109 : 1"
       inkscape:persp3d-origin="372.04724 : 350.78739 : 1"
       id="perspective2569" />
  </defs>
  <sodipodi:namedview
     id="base"
     pagecolor="#ffffff"
     bordercolor="#666666"
     borderopacity="1.0"
     gridtolerance="10000"
     guidetolerance="10"
     objecttolerance="10"
     inkscape:pageopacity="0.0"
     inkscape:pageshadow="2"
     inkscape:zoom="1"
     inkscape:cx="375"
     inkscape:cy="117.5"
     inkscape:document-units="px"
     inkscape:current-layer="layer1"
     showgrid="false"
     inkscape:window-width="1280"
     inkscape:window-height="727"
     inkscape:window-x="0"
     inkscape:window-y="24" />
  <metadata
     id="metadata2566">
    <rdf:RDF>
      <cc:Work
         rdf:about="">
        <dc:format>image/svg+xml</dc:format>
        <dc:type
           rdf:resource="http://purl.org/dc/dcmitype/StillImage" />
      </cc:Work>
    </rdf:RDF>
  </metadata>
  <g
     inkscape:label="Layer 1"
     inkscape:groupmode="layer"
     id="layer1"
     transform="translate(-265.2964,-495.36791)">
    <path
       style="fill:url(#linearGradient3950-0);fill-opacity:1;fill-rule:evenodd;stroke:#000000;stroke-width:1.95997024;stroke-linecap:round;stroke-linejoin:round;stroke-miterlimit:4;stroke-dasharray:none;stroke-opacity:1"
       d="M 331.61031,530.49252 C 340.33749,542.26745 349.06795,554.34971 357.79514,566.12466 C 353.24022,566.04567 339.61061,558.44138 335.05568,558.36227 C 330.28974,595.59547 315.68327,598.22683 295.9342,581.02768 C 326.25005,593.43512 329.14059,571.32281 328.70058,558.47689 C 324.44925,558.39613 310.13276,566.47535 305.88143,566.39468 C 314.45772,554.42693 323.03403,542.46027 331.61031,530.49252 L 331.61031,530.49252 z"
       id="path3938-9"
       sodipodi:nodetypes="ccccccc"
       inkscape:export-filename="/Users/andre/Desktop/gumby.png"
       inkscape:export-xdpi="89.93"
       inkscape:export-ydpi="89.93" />
    <g
       id="g2577"
       transform="translate(145.82362,617.5395)">
      <path
         inkscape:export-ydpi="89.93"
         inkscape:export-xdpi="89.93"
         inkscape:export-filename="/Users/andre/Desktop/gumby.png"
         sodipodi:nodetypes="cccccccc"
         id="path3940-0"
         d="M 185.83489,-83.664881 L 208.19506,-53.039369 L 188.24163,-62.940589 C 185.91887,-29.891886 172.84769,-21.608954 154.05779,-33.534373 C 180.75178,-21.724494 184.66837,-48.34383 184.89381,-62.765114 L 163.62857,-53.067004 L 185.83489,-83.664979 L 185.83489,-83.664881 z"
         style="opacity:0.20444444;fill:none;stroke:url(#linearGradient3947-7);stroke-width:1.95996964;stroke-linecap:round;stroke-linejoin:miter;stroke-miterlimit:4;stroke-dasharray:none;stroke-opacity:1" />
    </g>
    <path
       transform="matrix(1.9599701,0,0,1.9599701,438.64239,493.01105)"
       sodipodi:type="arc"
       style="fill:#ffffff;fill-opacity:1;stroke:#000000;stroke-width:3.09500003;stroke-miterlimit:4;stroke-dasharray:none;stroke-opacity:1"
       id="path3709-24"
       sodipodi:cx="-64.75"
       sodipodi:cy="10.125"
       sodipodi:rx="7.375"
       sodipodi:ry="7.375"
       d="M -57.375,10.125 A 7.375,7.375 0 1 1 -72.125,10.125 A 7.375,7.375 0 1 1 -57.375,10.125 z"
       inkscape:export-filename="/Users/andre/Desktop/gumby.png"
       inkscape:export-xdpi="89.93"
       inkscape:export-ydpi="89.93" />
    <g
       id="g2574"
       transform="translate(147.82362,617.5395)">
      <path
         inkscape:export-ydpi="89.93"
         inkscape:export-xdpi="89.93"
         inkscape:export-filename="/Users/andre/Desktop/gumby.png"
         d="M -57.375,10.125 A 7.375,7.375 0 1 1 -72.125,10.125 A 7.375,7.375 0 1 1 -57.375,10.125 z"
         sodipodi:ry="7.375"
         sodipodi:rx="7.375"
         sodipodi:cy="10.125"
         sodipodi:cx="-64.75"
         id="path3709-2-5"
         style="fill:#ffffff;fill-opacity:1;stroke:#000000;stroke-width:3.09500003;stroke-miterlimit:4;stroke-dasharray:none;stroke-opacity:1"
         sodipodi:type="arc"
         transform="matrix(1.9599701,0,0,1.9599701,332.01815,-124.28345)" />
    </g>
    <path
       style="fill:none;stroke:#000000;stroke-width:3.91238618;stroke-linecap:butt;stroke-linejoin:miter;stroke-miterlimit:4;stroke-dasharray:none;stroke-opacity:1"
       d="M 299.87467,512.38373 L 267.25259,512.57326"
       id="path3739-0"
       sodipodi:nodetypes="cc"
       inkscape:export-filename="/Users/andre/Desktop/gumby.png"
       inkscape:export-xdpi="89.93"
       inkscape:export-ydpi="89.93" />
    <g
       id="g2571"
       transform="translate(145.82362,617.5395)">
      <path
         inkscape:export-ydpi="89.93"
         inkscape:export-xdpi="89.93"
         inkscape:export-filename="/Users/andre/Desktop/gumby.png"
         d="M -57.375,10.125 A 7.375,7.375 0 1 1 -72.125,10.125 A 7.375,7.375 0 1 1 -57.375,10.125 z"
         sodipodi:ry="7.375"
         sodipodi:rx="7.375"
         sodipodi:cy="10.125"
         sodipodi:cx="-64.75"
         id="path3709-9-1"
         style="fill:#000000;fill-opacity:0;stroke:#000000;stroke-width:3.09500003;stroke-miterlimit:4;stroke-dasharray:none;stroke-opacity:1"
         sodipodi:type="arc"
         transform="matrix(1.9599701,0,0,1.9599701,292.81877,-124.52845)" />
    </g>
    <path
       style="fill:none;stroke:#000000;stroke-width:3.91139793;stroke-linecap:butt;stroke-linejoin:miter;stroke-miterlimit:4;stroke-dasharray:none;stroke-opacity:1"
       d="M 395.60504,512.45783 L 363.16863,512.26732"
       id="path3739-9-3"
       sodipodi:nodetypes="cc"
       inkscape:export-filename="/Users/andre/Desktop/gumby.png"
       inkscape:export-xdpi="89.93"
       inkscape:export-ydpi="89.93" />
    <path
       style="fill:none;stroke:#000000;stroke-width:3.7366271;stroke-linecap:butt;stroke-linejoin:miter;stroke-miterlimit:4;stroke-dasharray:none;stroke-opacity:1"
       d="M 339.65258,512.3663 L 324.21446,512.00103"
       id="path3739-9-7-1"
       sodipodi:nodetypes="cc"
       inkscape:export-filename="/Users/andre/Desktop/gumby.png"
       inkscape:export-xdpi="89.93"
       inkscape:export-ydpi="89.93" />
  </g>
</svg>
